C:\work\exams\nike-shoes-backend-java\src\main\java\com\nike\shoe\model\ShoesPriceVO.java
C:\work\exams\nike-shoes-backend-java\src\main\java\com\nike\shoe\model\ResultVO.java
C:\work\exams\nike-shoes-backend-java\src\main\java\com\nike\shoe\App.java
C:\work\exams\nike-shoes-backend-java\src\main\java\com\nike\shoe\controller\PriceController.java
C:\work\exams\nike-shoes-backend-java\src\main\java\com\nike\shoe\Constant.java
C:\work\exams\nike-shoes-backend-java\src\main\java\com\nike\shoe\service\impl\ShoesPriceServiceImpl.java
C:\work\exams\nike-shoes-backend-java\src\main\java\com\nike\shoe\service\ShoesPriceService.java
